<svg viewBox="0 0 171 171" fill="none" xmlns="http://www.w3.org/2000/svg">
<g clip-path="url(#clip0_2_278)">
<path d="M157.624 52.165H118.495V13.036H157.624V52.165ZM105.452 -0.00668557V65.2083H170.667V-0.00668557H105.452Z" fill="#626262"/>
<path d="M145.413 25.2493H130.705V39.9573H145.413V25.2493Z" fill="#626262"/>
<path d="M52.1719 52.165H13.0432V13.036H52.1719V52.165ZM65.2145 -0.00668557H0V65.2083H65.2145V-0.00668557Z" fill="#626262"/>
<path d="M39.9593 25.2493H25.2516V39.9573H39.9593V25.2493Z" fill="#626262"/>
<path d="M120.021 111.834H134.729V82.4183H105.313V97.126H90.6052V111.834H105.313V126.542H120.021V111.834Z" fill="#626262"/>
<path d="M90.6052 14.7013V-0.00669913H75.8969V29.4093H90.6052V14.7013" fill="#626262"/>
<path d="M105.313 44.1172V29.4093H90.6052V44.1172H105.313Z" fill="#626262"/>
<path d="M141.251 97.126V111.834H155.959V141.25H141.251H126.543H111.834V155.959H126.543H141.251V170.667H155.959H170.667V155.959V141.25V126.542V111.834V97.126H155.959H141.251Z" fill="#626262"/>
<path d="M14.7079 67.7103V82.4182H29.4162V67.7103H14.7079Z" fill="#626262"/>
<path d="M0 97.126H14.7079V82.4182H0V97.126Z" fill="#626262"/>
<path d="M87.2765 82.4182V53.0021H72.5688V67.7104H57.8609V82.4182H44.124H29.4161V97.126H44.124H57.8609H58.8323H72.5688H87.2765V82.4182" fill="#626262"/>
<path d="M75.8969 111.834V126.542H90.6052V111.834H75.8969Z" fill="#626262"/>
<path d="M90.6052 67.7103V82.4182H105.313V67.7103H90.6052Z" fill="#626262"/>
<path d="M90.6052 141.25H105.313V126.542H90.6052V141.25Z" fill="#626262"/>
<path d="M75.8969 155.959V170.667H90.6052V141.25H75.8969V155.959Z" fill="#626262"/>
<path d="M13.0432 118.494H52.1719V157.624H13.0432V118.494ZM0 170.667H65.2145V105.452H0V170.667Z" fill="#626262"/>
<path d="M25.2516 145.41H39.9593V130.703H25.2516V145.41Z" fill="#626262"/>
<path d="M141.251 70.6218V85.3302H170.667V70.6218H155.959H141.251Z" fill="#626262"/>
</g>
<defs>
<clipPath id="clip0_2_278">
<rect width="170.667" height="170.667" fill="white"/>
</clipPath>
</defs>
</svg>
