<?xml version="1.0" encoding="UTF-8" standalone="no"?>
<!-- Created with Inkscape (http://www.inkscape.org/) -->

<svg
   version="1.1"
   id="svg2"
   xml:space="preserve"
   viewBox="0 0 170.66667 158.67999"
   sodipodi:docname="heart.eps"
   xmlns:inkscape="http://www.inkscape.org/namespaces/inkscape"
   xmlns:sodipodi="http://sodipodi.sourceforge.net/DTD/sodipodi-0.dtd"
   xmlns="http://www.w3.org/2000/svg"
   xmlns:svg="http://www.w3.org/2000/svg"><defs
     id="defs6" /><sodipodi:namedview
     id="namedview4"
     pagecolor="#ffffff"
     bordercolor="#666666"
     borderopacity="1.0"
     inkscape:pageshadow="2"
     inkscape:pageopacity="0.0"
     inkscape:pagecheckerboard="0" /><g
     id="g8"
     inkscape:groupmode="layer"
     inkscape:label="ink_ext_XXXXXX"
     transform="matrix(1.3333333,0,0,-1.3333333,0,158.68)"><g
       id="g10"
       transform="scale(0.1)"><path
         d="M 1219.09,711.711 C 1194.81,608.934 1138.68,515.422 1056.83,441.262 L 636.496,66.25 223.359,441.137 C 141.387,515.422 85.2578,608.934 60.9492,711.711 43.5352,785.531 50.7344,827.102 50.7344,827.469 l 0.3672,2.402 c 16.0039,180.169 141.1214,310.939 297.4964,310.939 115.269,0 216.847,-70.77 265.035,-184.962 l 22.738,-53.727 22.711,53.727 c 47.356,112.382 154.348,184.962 272.477,184.962 156.291,0 281.401,-130.77 297.741,-313.216 0,-0.492 7.23,-42.188 -10.21,-115.883 z m 58.77,123.574 c -18.62,205.645 -164.2,354.825 -346.391,354.825 -121.301,0 -232.477,-65.39 -294.973,-169.95 -61.914,106.01 -168.535,169.95 -287.898,169.95 C 166.371,1190.11 20.8242,1040.93 2.17578,835.285 0.640625,826.148 -5.39063,778.422 13.0078,700.418 39.5625,587.918 100.859,485.602 190.313,404.734 L 636.25,0 l 453.5,404.613 c 89.43,80.989 150.72,183.305 177.31,295.805 18.37,77.879 12.24,125.73 10.8,134.867 v 0"
         style="fill:#626262;fill-opacity:1;fill-rule:nonzero;stroke:none"
         id="path12" /></g></g></svg>
