<svg viewBox="0 0 171 161" fill="none" xmlns="http://www.w3.org/2000/svg">
<g clip-path="url(#clip0_2_270)">
<path d="M109.841 103.871L85.3333 86.0648L60.8265 103.871L70.1875 75.0601L45.6797 57.2549H75.9724L85.3333 28.4445L94.6953 57.2549H124.987L100.48 75.0601L109.841 103.871ZM128.087 1.40588e-06H42.5803C19.0645 1.40588e-06 0 19.0627 0 42.5799V89.7351C0 113.251 19.0645 132.315 42.5803 132.315H53.6927L34.038 160.12L85.3333 132.315H128.087C151.603 132.315 170.667 113.251 170.667 89.7351V42.5799C170.667 19.0627 151.603 1.40588e-06 128.087 1.40588e-06" fill="#626262"/>
</g>
<defs>
<clipPath id="clip0_2_270">
<rect width="170.667" height="160.12" fill="white"/>
</clipPath>
</defs>
</svg>
