<?xml version="1.0" encoding="UTF-8"?>
<svg xmlns="http://www.w3.org/2000/svg" xmlns:xlink="http://www.w3.org/1999/xlink" width="37.5pt" height="37.499999pt" viewBox="0 0 37.5 37.499999" version="1.2">
<defs>
<clipPath id="clip1">
  <path d="M 0.75 7 L 36.75 7 L 36.75 31 L 0.75 31 Z M 0.75 7 "/>
</clipPath>
</defs>
<g id="surface1">
<path style=" stroke:none;fill-rule:nonzero;fill:rgb(9.01947%,64.709473%,58.039856%);fill-opacity:1;" d="M 8.625 25.78125 C 8.3125 25.78125 8.0625 26.03125 8.0625 26.34375 C 8.0625 26.652344 7.808594 26.90625 7.5 26.90625 C 7.191406 26.90625 6.9375 26.652344 6.9375 26.34375 C 6.9375 26.035156 7.191406 25.78125 7.5 25.78125 C 7.8125 25.78125 8.0625 25.53125 8.0625 25.21875 C 8.0625 24.90625 7.8125 24.65625 7.5 24.65625 C 6.570312 24.65625 5.8125 25.414062 5.8125 26.34375 C 5.8125 27.273438 6.570312 28.03125 7.5 28.03125 C 8.429688 28.03125 9.1875 27.273438 9.1875 26.34375 C 9.1875 26.03125 8.9375 25.78125 8.625 25.78125 Z M 8.625 25.78125 "/>
<path style=" stroke:none;fill-rule:nonzero;fill:rgb(9.01947%,64.709473%,58.039856%);fill-opacity:1;" d="M 31.125 25.78125 C 30.8125 25.78125 30.5625 26.03125 30.5625 26.34375 C 30.5625 26.652344 30.308594 26.90625 30 26.90625 C 29.691406 26.90625 29.4375 26.652344 29.4375 26.34375 C 29.4375 26.035156 29.691406 25.78125 30 25.78125 C 30.3125 25.78125 30.5625 25.53125 30.5625 25.21875 C 30.5625 24.90625 30.3125 24.65625 30 24.65625 C 29.070312 24.65625 28.3125 25.414062 28.3125 26.34375 C 28.3125 27.273438 29.070312 28.03125 30 28.03125 C 30.929688 28.03125 31.6875 27.273438 31.6875 26.34375 C 31.6875 26.03125 31.4375 25.78125 31.125 25.78125 Z M 31.125 25.78125 "/>
<g clip-path="url(#clip1)" clip-rule="nonzero">
<path style=" stroke:none;fill-rule:nonzero;fill:rgb(9.01947%,64.709473%,58.039856%);fill-opacity:1;" d="M 36.75 18.46875 C 36.75 18.3125 36.6875 18.171875 36.582031 18.066406 C 36.339844 17.402344 35.855469 16.84375 35.195312 16.515625 C 35.179688 16.507812 35.160156 16.5 35.140625 16.492188 L 33.28125 15.792969 L 32.148438 11.492188 C 32.148438 11.484375 32.148438 11.480469 32.144531 11.472656 C 31.785156 10.273438 30.703125 9.46875 29.449219 9.46875 L 25.5 9.46875 L 25.5 8.34375 C 25.5 7.722656 24.996094 7.21875 24.375 7.21875 L 1.875 7.21875 C 1.253906 7.21875 0.75 7.722656 0.75 8.34375 L 0.75 24.09375 C 0.75 24.714844 1.253906 25.21875 1.875 25.21875 L 3.726562 25.21875 C 3.671875 25.402344 3.632812 25.589844 3.601562 25.78125 L 1.3125 25.78125 C 1 25.78125 0.75 26.03125 0.75 26.34375 C 0.75 26.65625 1 26.90625 1.3125 26.90625 L 3.601562 26.90625 C 3.878906 28.8125 5.519531 30.28125 7.5 30.28125 C 9.480469 30.28125 11.121094 28.8125 11.398438 26.90625 L 12.5625 26.90625 C 12.5625 27.835938 13.320312 28.59375 14.25 28.59375 L 17.625 28.59375 C 18.554688 28.59375 19.3125 27.835938 19.3125 26.90625 L 26.101562 26.90625 C 26.378906 28.8125 28.019531 30.28125 30 30.28125 C 31.980469 30.28125 33.621094 28.8125 33.898438 26.90625 L 36.1875 26.90625 C 36.5 26.90625 36.75 26.65625 36.75 26.34375 C 36.75 26.03125 36.5 25.78125 36.1875 25.78125 L 33.898438 25.78125 C 33.867188 25.589844 33.828125 25.402344 33.773438 25.21875 L 35.625 25.21875 C 36.246094 25.21875 36.75 24.714844 36.75 24.09375 L 36.75 19.03125 C 36.75 18.898438 36.742188 18.769531 36.722656 18.640625 C 36.742188 18.585938 36.75 18.527344 36.75 18.46875 Z M 35.625 21.84375 L 35.0625 21.84375 L 35.0625 21.28125 L 35.625 21.28125 Z M 35.195312 17.90625 L 25.5 17.90625 L 25.5 16.78125 L 32.710938 16.78125 L 34.714844 17.535156 C 34.902344 17.628906 35.0625 17.757812 35.195312 17.90625 Z M 29.449219 10.59375 C 30.199219 10.59375 30.847656 11.074219 31.066406 11.789062 L 32.082031 15.65625 L 25.5 15.65625 L 25.5 10.59375 Z M 4.125 24.09375 L 1.875 24.09375 L 1.875 21.28125 L 19.3125 21.28125 C 19.625 21.28125 19.875 21.03125 19.875 20.71875 C 19.875 20.40625 19.625 20.15625 19.3125 20.15625 L 1.875 20.15625 L 1.875 8.34375 L 24.375 8.34375 L 24.375 24.09375 L 10.875 24.09375 C 10.828125 24.09375 10.785156 24.101562 10.742188 24.109375 C 10.03125 23.082031 8.84375 22.40625 7.5 22.40625 C 6.15625 22.40625 4.96875 23.082031 4.257812 24.109375 C 4.214844 24.101562 4.171875 24.09375 4.125 24.09375 Z M 7.5 29.15625 C 5.949219 29.15625 4.6875 27.894531 4.6875 26.34375 C 4.6875 24.792969 5.949219 23.53125 7.5 23.53125 C 9.050781 23.53125 10.3125 24.792969 10.3125 26.34375 C 10.3125 27.894531 9.050781 29.15625 7.5 29.15625 Z M 11.398438 25.78125 C 11.367188 25.589844 11.328125 25.402344 11.273438 25.21875 L 12.660156 25.21875 C 12.597656 25.394531 12.5625 25.585938 12.5625 25.78125 Z M 18.1875 26.90625 C 18.1875 27.214844 17.933594 27.46875 17.625 27.46875 L 14.25 27.46875 C 13.941406 27.46875 13.6875 27.214844 13.6875 26.90625 L 13.6875 25.78125 C 13.6875 25.472656 13.941406 25.21875 14.25 25.21875 L 17.625 25.21875 C 17.933594 25.21875 18.1875 25.472656 18.1875 25.78125 Z M 19.214844 25.21875 L 26.226562 25.21875 C 26.171875 25.402344 26.132812 25.589844 26.101562 25.78125 L 19.3125 25.78125 C 19.3125 25.585938 19.277344 25.394531 19.214844 25.21875 Z M 30 29.15625 C 28.449219 29.15625 27.1875 27.894531 27.1875 26.34375 C 27.1875 24.792969 28.449219 23.53125 30 23.53125 C 31.550781 23.53125 32.8125 24.792969 32.8125 26.34375 C 32.8125 27.894531 31.550781 29.15625 30 29.15625 Z M 33.375 24.09375 C 33.328125 24.09375 33.285156 24.101562 33.242188 24.109375 C 32.53125 23.082031 31.34375 22.40625 30 22.40625 C 28.65625 22.40625 27.46875 23.082031 26.757812 24.109375 C 26.714844 24.101562 26.671875 24.09375 26.625 24.09375 L 25.5 24.09375 L 25.5 19.03125 L 35.625 19.03125 L 35.625 20.15625 L 35.0625 20.15625 C 34.441406 20.15625 33.9375 20.660156 33.9375 21.28125 L 33.9375 21.84375 C 33.9375 22.464844 34.441406 22.96875 35.0625 22.96875 L 35.625 22.96875 L 35.625 24.09375 Z M 33.375 24.09375 "/>
</g>
<path style=" stroke:none;fill-rule:nonzero;fill:rgb(9.01947%,64.709473%,58.039856%);fill-opacity:1;" d="M 14.8125 25.78125 C 14.664062 25.78125 14.519531 25.839844 14.414062 25.945312 C 14.308594 26.050781 14.25 26.195312 14.25 26.34375 C 14.25 26.492188 14.308594 26.636719 14.414062 26.742188 C 14.519531 26.847656 14.664062 26.90625 14.8125 26.90625 C 14.960938 26.90625 15.105469 26.847656 15.210938 26.742188 C 15.316406 26.636719 15.375 26.492188 15.375 26.34375 C 15.375 26.195312 15.316406 26.050781 15.210938 25.945312 C 15.105469 25.839844 14.960938 25.78125 14.8125 25.78125 Z M 14.8125 25.78125 "/>
<path style=" stroke:none;fill-rule:nonzero;fill:rgb(9.01947%,64.709473%,58.039856%);fill-opacity:1;" d="M 21.5625 21.28125 L 22.6875 21.28125 C 23 21.28125 23.25 21.03125 23.25 20.71875 C 23.25 20.40625 23 20.15625 22.6875 20.15625 L 21.5625 20.15625 C 21.253906 20.15625 21 20.40625 21 20.71875 C 21 21.03125 21.253906 21.28125 21.5625 21.28125 Z M 21.5625 21.28125 "/>
</g>
</svg>
